\relax 
\@writefile{lof}{\contentsline {figure}{\numberline {1}{\ignorespaces GUI}}{1}}
\newlabel{fig:screenshot}{{1}{1}}
\@writefile{lof}{\contentsline {figure}{\numberline {2}{\ignorespaces Highlighted Square}}{2}}
\newlabel{fig:capture}{{2}{2}}
\@writefile{lof}{\contentsline {figure}{\numberline {3}{\ignorespaces Legal Move}}{2}}
\newlabel{fig:capture1}{{3}{2}}
\@writefile{lof}{\contentsline {figure}{\numberline {4}{\ignorespaces Illegal Move}}{3}}
\newlabel{fig:capture2}{{4}{3}}
\@writefile{lof}{\contentsline {figure}{\numberline {5}{\ignorespaces End of Game}}{3}}
\newlabel{fig:capture3}{{5}{3}}
\@writefile{lof}{\contentsline {figure}{\numberline {6}{\ignorespaces Updated Score}}{4}}
\newlabel{fig:capture4}{{6}{4}}
